<svg xmlns="http://www.w3.org/2000/svg" width="60" height="60" viewBox="0 0 60 60">
    <g fill="none" fill-rule="evenodd">
        <g fill="#00B077">
            <g>
                <g>
                    <path d="M49.069 43.113c1.146 0 2.076.93 2.076 2.076v.6c0 1.146-.93 2.076-2.076 2.076-1.147 0-2.076-.93-2.076-2.076v-.6c0-1.147.929-2.076 2.076-2.076zm-38.486-.54c1.147 0 2.076.93 2.076 2.076v.6c0 1.147-.929 2.076-2.076 2.076-1.146 0-2.076-.93-2.076-2.076v-.6c0-1.146.93-2.076 2.076-2.076zm11.998-1.152c1.147 0 2.076.93 2.076 2.076v.6c0 1.147-.93 2.076-2.076 2.076s-2.076-.93-2.076-2.076v-.6c0-1.147.93-2.076 2.076-2.076zm7.245 0c1.147 0 2.076.93 2.076 2.076v.6c0 1.147-.93 2.076-2.076 2.076-1.147 0-2.076-.93-2.076-2.076v-.6c0-1.147.93-2.076 2.076-2.076zm19.243-5.114c1.146 0 2.076.93 2.076 2.076v.6c0 1.146-.93 2.076-2.076 2.076-1.147 0-2.076-.93-2.076-2.076v-.6c0-1.147.929-2.076 2.076-2.076zm-38.486-1.08c1.147 0 2.076.93 2.076 2.076v.6c0 1.147-.929 2.076-2.076 2.076-1.146 0-2.076-.929-2.076-2.076v-.6c0-1.146.93-2.076 2.076-2.076zm11.998-2.303c1.147 0 2.076.93 2.076 2.076v.6c0 1.146-.93 2.076-2.076 2.076s-2.076-.93-2.076-2.076V35c0-1.147.93-2.076 2.076-2.076zm7.245 0c1.147 0 2.076.93 2.076 2.076v.6c0 1.146-.93 2.076-2.076 2.076-1.147 0-2.076-.93-2.076-2.076V35c0-1.147.93-2.076 2.076-2.076zm7.245 0c1.146 0 2.076.93 2.076 2.076v.6c0 1.146-.93 2.076-2.076 2.076-1.147 0-2.076-.93-2.076-2.076V35c0-1.147.93-2.076 2.076-2.076zm-26.488-5.042c1.147 0 2.076.929 2.076 2.076v.6c0 1.146-.929 2.076-2.076 2.076-1.146 0-2.076-.93-2.076-2.076v-.6c0-1.147.93-2.076 2.076-2.076zm11.998-3.455c1.147 0 2.076.93 2.076 2.076v.6c0 1.146-.93 2.076-2.076 2.076s-2.076-.93-2.076-2.076v-.6c0-1.147.93-2.076 2.076-2.076zm7.245 0c1.147 0 2.076.93 2.076 2.076v.6c0 1.146-.93 2.076-2.076 2.076-1.147 0-2.076-.93-2.076-2.076v-.6c0-1.147.93-2.076 2.076-2.076zm7.245 0c1.146 0 2.076.93 2.076 2.076v.6c0 1.146-.93 2.076-2.076 2.076-1.147 0-2.076-.93-2.076-2.076v-.6c0-1.147.93-2.076 2.076-2.076zM22.58 15.93c1.147 0 2.076.93 2.076 2.076v.6c0 1.146-.93 2.076-2.076 2.076s-2.076-.93-2.076-2.076v-.6c0-1.147.93-2.076 2.076-2.076zm7.245 0c1.147 0 2.076.93 2.076 2.076v.6c0 1.146-.93 2.076-2.076 2.076-1.147 0-2.076-.93-2.076-2.076v-.6c0-1.147.93-2.076 2.076-2.076zm7.245 0c1.146 0 2.076.93 2.076 2.076v.6c0 1.146-.93 2.076-2.076 2.076-1.147 0-2.076-.93-2.076-2.076v-.6c0-1.147.93-2.076 2.076-2.076zM43.87.843c.86 0 1.557.697 1.557 1.557 0 .827-.645 1.503-1.459 1.554l-.098.003H17.338v49.21c0 .826-.644 1.503-1.458 1.553l-.098.004c-.827 0-1.504-.645-1.554-1.459l-.003-.098-.001-35.492H6.941L6.94 56.894h35.373V7.184c0-.86.698-1.558 1.557-1.558.827 0 1.504.645 1.554 1.459l.003.098v16.379h8.841c.827 0 1.503.645 1.554 1.46l.003.098v31.774h2.027c.86 0 1.557.698 1.557 1.558 0 .827-.645 1.503-1.459 1.554l-.098.003H43.871l-.022-.001H5.416l-.032.001-.022-.001H1.8c-.86 0-1.557-.696-1.557-1.556 0-.827.645-1.503 1.459-1.554l.098-.003 2.026-.001V16.118c0-.827.645-1.503 1.46-1.554l.098-.003h8.84V2.4c0-.827.645-1.503 1.46-1.554l.098-.003H43.87zm1.556 25.833v30.218h7.284V26.677l-7.284-.001zm-8.356 14.745c1.146 0 2.076.93 2.076 2.076v.6c0 1.147-.93 2.076-2.076 2.076-1.147 0-2.076-.93-2.076-2.076v-.6c0-1.147.93-2.076 2.076-2.076z" transform="translate(-844 -3597) translate(0 3207) translate(844 390)"/>
                </g>
            </g>
        </g>
    </g>
</svg>
